Introduction to EmsiR: how to query the Episteme API from within R
…
library(EmsiR)

EpistemeLogin("YourUsername",
              "YourPasscode")

Credentials are stored as environment variables, and will be used every time you query Episteme.

Listing the datasets available on Episteme

We might want to check out what’s available, so first we get a listing of the datasets currently hosted on Episteme:

dataset_list()

## Source: local data frame [188 x 4]
## Groups: Country, Content [69]
## 
##    Version Country              Content                     Identifier
##      <chr>   <chr>                <chr>                          <chr>
## 1        1      AU InternetVacancyIndex EMSI.AU.InternetVacancyIndex/1
## 2   2014.2      AU             Industry        EMSI.AU.Industry/2014.2
## 3   2016.2      AU             Industry        EMSI.AU.Industry/2016.2
## 4   2014.2      AU           Occupation      EMSI.AU.Occupation/2014.2
## 5   2016.2      AU           Occupation      EMSI.AU.Occupation/2016.2
## 6   2014.2      AU             Staffing        EMSI.AU.Staffing/2014.2
## 7   2016.2      AU             Staffing        EMSI.AU.Staffing/2016.2
## 8   2014.1      BR         Institutions    EMSI.BR.Institutions/2014.1
## 9   2013.3      BR         Institutions    EMSI.BR.Institutions/2013.3
## 10  2014.1      BR           Occupation      EMSI.BR.Occupation/2014.1
## # ... with 178 more rows
…
## 
## Attaching package: 'dplyr'

## The following objects are masked from 'package:stats':
## 
##     filter, lag

## The following objects are masked from 'package:base':
## 
##     intersect, setdiff, setequal, union

dataset_list() %>% filter(Country=="UK")

## Source: local data frame [23 x 4]
## Groups: Country, Content [8]
## 
##    Version Country              Content
##      <chr>   <chr>                <chr>
## 1   2013.1      UK             Staffing
## 2   2014.1      UK             Staffing
## 3   2015.1      UK             Staffing
## 4   2016.1      UK             Staffing
## 5   2013.1      UK             Industry
## 6   2014.1      UK             Industry
## 7   2015.1      UK             Industry
## 8   2016.1      UK             Industry
## 9        2      UK       ClaimantCounts
## 10  2015.1      UK Occupation.AgeGender
## # ... with 13 more rows, and 1 more variables: Identifier <chr>
…
## {"dimensionName":["Area"],"map":{"England":[["ENG"]],"Wales":[["WAL"]]}}

There’s one other dimension we’ve not covered for our dataset - ClassOfWorker. Because there are only four options available (Employees or Proprietors, both combined, or both separately), there is a shorthand function ready for this called CoW() which simply requires a code. In this place, we’re going to have all workers, and so it’ll become CoW("A") - but we can add that when we make our data pull query.

Pulling the data

We use datapull() to make the query, and it combines three main elements: the details of the dataset (country, content, release), then the constraints as a list (in this case, Occupation, Area and ClassOfWorker), and then the metrics we’ve specified. Like this:

occs <- datapull("UK", "Occupation", "2016.1", constraints = list(dimArea, dimOcc, CoW("A")), metSimple)

## No encoding supplied: defaulting to UTF-8.

occs

## # A tibble: 734 × 5
##       Area Occupation ClassOfWorker `Employment in 2016`
##     <fctr>     <fctr>        <fctr>                <dbl>
## 1  England       1115           All            61566.014
## 2  England       1116           All             7063.330
## 3  England       1121           All           213487.406
## 4  England       1122           All           108821.161
## 5  England       1123           All             8641.531
## 6  England       1131           All           224906.330
## 7  England       1132           All           183074.574
## 8  England       1133           All            44981.853
## 9  England       1134           All            20785.579
## 10 England       1135           All           138162.919
## # ... with 724 more rows, and 1 more variables: `Employment in 2022` <dbl>
…
